%YAML 1.1
%TAG !u! tag:unity3d.com,2011:
--- !u!78 &1
TagManager:
  serializedVersion: 2
  tags:
  - Block
  - Ball
  - Paddle
  - Wall
  - PowerUp
  layers:
  - Default
  - TransparentFX
  - Ignore Raycast
  - 
  - Water
  - UI
  - 
  - 
  - Ball
  - Block
  - Paddle
  - Wall
  - PowerUp
  - Projectile
  - 
  - 
  - 
  - 
  - 
  - 
  - 
  - 
  - 
  - 
  - 
  - 
  - 
  - 
  - 
  - 
  - 
  - 
  m_SortingLayers:
  - name: Default
    uniqueID: 0
    locked: 0
  - name: Background
    uniqueID: 1851361009
    locked: 0
  - name: Bricks
    uniqueID: 1062284677
    locked: 0
  - name: Player
    uniqueID: 1985373373
    locked: 0
  - name: Projectile
    uniqueID: 3966324637
    locked: 0
  - name: Ball
    uniqueID: 3748551453
    locked: 0
