%YAML 1.1
%TAG !u! tag:unity3d.com,2011:
--- !u!114 &11400000
MonoBehaviour:
  m_ObjectHideFlags: 0
  m_CorrespondingSourceObject: {fileID: 0}
  m_PrefabInstance: {fileID: 0}
  m_PrefabAsset: {fileID: 0}
  m_GameObject: {fileID: 0}
  m_Enabled: 1
  m_EditorHideFlags: 0
  m_Script: {fileID: 11500000, guid: b919984b79d44d74ba162a26bbcdc5e7, type: 3}
  m_Name: ExplosionSound
  m_EditorClassIdentifier: 
  _audio: {fileID: 8300000, guid: c7b213b2f3092284b9a274a62291cab3, type: 3}
  _volume:
    minValue: 0.4056501
    maxValue: 0.47215366
  _pitch:
    minValue: 0.89538586
    maxValue: 1.0507078
  _loop: 0
